@startuml

|#98FB98|Водитель|
start
:Написание заявление с указанием
 необходимых для регистрации данных;
:Передача заявления администратору;
|#FFC0CB|Администратор|
:Получение заявления от водителя;
:Проверка данных на коректность;
if (Данные корректны?) then (да)
else (нет)
    note
        Случай передачи некоректных
        данных - более сложный
        процесс, который не
        рассматривается в рамках
        работы системы.
    end note
    stop
endif
:Авторизация в системе, если еще не авторизован;
:Переход в окно регистрации водителей;
repeat
    note
        В любой момент администратор
        может отменить данный процесс,
        выйдя из окна регистрации.
    end note
    :Ввод данных водителя в окне регистрации;
    |#D8BFD8|Система|
    :Проверка введенных данных на корректность;
    :Проверка наличия пользователя с данным логином;
    if (Все проверки успешны?) then (да)
        :Сохранение информации в базе;
        :Передача администратору сообщения
         об успешной регистрации;
    else (нет)
        :Передача сообщения об ошибке;
    endif
     |Администратор|
     :Получение результата регистрации;
repeat while (Регистрация успешна?) is (нет) not (да)
:Передача водителю логина и пароля;
|Водитель|
:Получение логина и пароля;
:Скачивание приложения на телефон;
:Пробная авторизация в системе;
stop

@enduml